{
    "type": "service_account",
    "project_id": "incredible-web-318011",
    "private_key_id": "3646353c64c60ec1b5beea864a4b95f0f0f80e81",
    "private_key": "-----BEGIN PRIVATE KEY-----\nMIIEvQIBADANBgkqhkiG9w0BAQEFAASCBKcwggSjAgEAAoIBAQDldkPlSVecvOtr\nkpCX4cVsNNZsIRSGm6Zi698mukUPT1PGalNRR2IDS7EtnkVTPh9JLhGLiPz/RhM/\nJ2qFtyUk8Coa0iyykL+H2jlk6Y4p/7SCKV4e0aojpNf251SU5K4WWlpyyCyl1x1Q\nIaF7QZkGkhc2qF+JhScXy0LGFiowKrZYSPYoraaT2PMD2z2MXeCMOcxvJWl9CrqW\nYIVFD0X9wMuVIMFjA7RcgmxnUudf3x3kf45IR4XknJo6atjv/3zvLQT4U9cUfbXC\nZW8FoWPS51m+9zuW8jj5IVjbPb8Dn8xEyr/vYbYms6brT4AAM4UdkweYaG++vi/o\nhGnOw9AzAgMBAAECggEAD75QBTzFepcJrf1F123hnj130r5oSp4GSfY1/tG76EOA\nk3X7FnIH2wMH+oHH7uCtw9cZ1BGHjjowGt6o89ivfzvNH7742x2MTpVd57sQingl\nWeLdts6a1kw6lxGjH34bJaR4XTS3v38lXziXfD3xcl52okTmHSjaGEtVXwLpTRmX\n1Mw8v3jORXvZgDR0Jn0ofrbMGBdqCex91mQeZL8tZ3X7aIDCiEdNlvZYcP6wjmQm\nRjlQaIXVkI5Yo9OtEzx4CZuAZvY34mJCPSBZYlpkSiM5FDYDLfH3ghjzUce5kEE1\nWihbhs1+ATcc5pebEhPIXhM0Mh/F82RdBc42RIM9JQKBgQD8mFQD7sD704GCao20\nP7rUcv0ObyupsjRvIO+iT1YPOt9oJbOsiZf5G/z4IfGnd2Wn1R+IAflZb++dSrSX\nUhynu/LD3oovKVIJqdUD5srCJN22/6kBoCV6xypHUgxVFlHXVo45dRQXyNVCOiuL\np3b6DzlWJt7vXGF12GsTGAYYbwKBgQDojhuhMs4F6c97+3yZjprZjJiAO9cgXDbW\nqsLpOuv2E8n3xoY3JjuorT0nkApPTc3FD+Ho9p0T+xJRYwphcodpONVPrX50utrK\nrPSXfQTEjLskGmwCOplOdc2ng2IhBnQYjMiKvRWxV5InOI49S8rku+DsJsHVJfd5\n3HJ97ZE+fQKBgQCSgdfZIBYW+ipX9m2SapR2vOtCAAEXQCFhg3z6a4HC+6awxY1d\nOcFH34/ua+G5/Gqd2eOcA2kZEu+sD7SHQD0WnNDGAsGrcRAAQt0mkipwSOnARrFE\nHBshB3viOhilEXkOqUl80geBdB8ddpfjPJKpn0LmUU1lD/QHYitYu8ptSQKBgFJs\na6aKlzLJV9ydmd/jB0cr6bEphGnXxSf4hfScCZ3CDcdf+Zn6VxLFs/Mdvkm1TcUW\nh/9FyQ6X4jouXDOFoDDPD+uZlkRRJdLH0jkO+m2fY4S8SKPRmRyR7D3+9vy1iNha\nrYle0x1z6D02clOPVW4UmPeaFQEy36+1Tm8LkHsRAoGAUZ/15hAvXVXNq0hqebG2\nlp00z+YSxONFHrdewoaTthGMUlKs5rfCYvwNbHHtc5lJ+SRqtq1LOTv/zBR9zPWO\nCdGQ9kEZcQUwXGfcw1/mmI97OiZoQAvi09yNSQuKIJMbgScAU0cjUaEAFYJ0kw+I\nhMRvDkLP07DTtc/N1DppHpk=\n-----END PRIVATE KEY-----\n",
    "client_email": "170083154498-compute@developer.gserviceaccount.com",
    "client_id": "105155550175604705610",
    "auth_uri": "https://accounts.google.com/o/oauth2/auth",
    "token_uri": "https://oauth2.googleapis.com/token",
    "auth_provider_x509_cert_url": "https://www.googleapis.com/oauth2/v1/certs",
    "client_x509_cert_url": "https://www.googleapis.com/robot/v1/metadata/x509/170083154498-compute%40developer.gserviceaccount.com"
}