{
    "type": "service_account",
    "project_id": "avl-exam",
    "private_key_id": "d0f2d3938fc21e98004ef3d719097397492fa7f9",
    "private_key": "-----BEGIN PRIVATE KEY-----\nMIIEvQIBADANBgkqhkiG9w0BAQEFAASCBKcwggSjAgEAAoIBAQCbT0RgBgWtLctR\nSo3us5Z/kBahHdArfC0dTzsn3+/82uKW/GcoO5xKLku4Peloa+X6x4jI36DhzTao\nieH0TMMUyalydQLwa7jW/8Bxz8Jp6M5JDjAdDSznd5RPCMemYw1ZPp3B538XOBJk\nQVs9ZqdA0JRK/813W+5bN5EDOWwfEOPOQtDKY+vGz55TWxG/LFkviu/vtGmbQf8n\nkRZsU6YfLDqLCbYwTr4+10lifR0G4Zo0wNbsYVhpRMKg0pjHCQZVx5ij42xaV1t+\nK8fN73HuBjb5ORwG5crWAH/E8GeXihfLpbYfsamr/ZmR1JwchUe4JJRllb9/ZZUO\nsFiZM717AgMBAAECggEAMZcn3/lMSrW6m+RQWY2iWmzprNxWIexug1NPMjZA7N3/\nR/KkBaazCsSpjNTH+H2rW13nASzWtALQlxQfv9/a0oJpxpAyNg5PYOcczbpm+2ZI\np+8N0djpI6d9BZdqGGi8VGi3+rguTn2q8bQkrABhG0L+dswjER+bhijB9uOY8Hn2\nVwZcRKJkVGIt6aFuszluCA+nQq6jlhatgOYWVBqfe9EaKIHJingX5wMv7NOb8rdd\nWpyDJAGWxtZMQloVfTaAIa0ys9eDj1PiJRd55cKQqrKe7ckQ2PlKy6kAwO8utsSQ\npzVSgG/bNDi2+SYf8x7PsCSsxoVm87YtbGNOe7wiAQKBgQDZGfJeMtqnvQHKsK/b\n5rC55GGjIxCSz5S97jdMij7iVc0GD0CpRbL3oLD6649zxNEWwxFj4babsIYPubmr\nze5dCL8zFAILQXbn/+EQukmqJSrQPfmIYL8TSz015gLAN41U0XZInNZOGhXmuawl\nAiaEnnSZI5KEdQ9gWmEg+sJ9gQKBgQC3IwtJnylwx33jipniLzFl4BjK/zcBe19O\nr6eOAnbJCqroIFPmq85Fg/TYzUEVsUz4kZeY0AjglddyOmEhV2aXSnjRmKlVEtDS\ntSbiEy1SxGNk9v9LM4VVlpt/9+8/nDv96+WQn97cY33plD+Mfx3dg2GT0gx2EOeT\nby5GFzqw+wKBgCbtTxby2V/wNO0KB05Pq+p498TPmb4pOEth9kpkE2hz6AIpI/f2\nBmP+TR2AtUUVykPhkDGvnBWIblFNhOw4TYAi/F2FPeSUxWRN7iYYsPKwHWAfbKm2\nZyxndj8+0clzbIUD1cipTofMh5bKPgKYwx1OaCu5RCE5+BrXuci3Db6BAoGAQmrb\nNSAcD2LKLTOfC4DCEYhsdXKJqGft8MOTqNUL722G/hh7VTUJ4fwxWE9YQ13B5IQo\nzqrkDU9Ki4rQnx7rfgLsPld3Ufs48LHyIBuEXHgM9BkADW3p9VhhnM92XUN0Hmrn\nHsRcNuF+ULALPBD969AyG0Iactc+pSG1ToYuKvECgYEAvaXtvTf4wCmwKjcIhP9e\noydq+GLLj5aO9uRTxLF71UvvU0IHUf5hKAoReFIdPE0eDc+yej4fw2iz0i64uyZe\nfWJ9oycLV43dX82uvHgQhg67I+9UHhRpO8FUxP9Wp5CYA76eyF7mwL6TQ4D0iYbS\nbAq0yEu0cAIrX0HIkV6CtFo=\n-----END PRIVATE KEY-----\n",
    "client_email": "avl-exam@appspot.gserviceaccount.com",
    "client_id": "118274285591021604493",
    "auth_uri": "https://accounts.google.com/o/oauth2/auth",
    "token_uri": "https://oauth2.googleapis.com/token",
    "auth_provider_x509_cert_url": "https://www.googleapis.com/oauth2/v1/certs",
    "client_x509_cert_url": "https://www.googleapis.com/robot/v1/metadata/x509/avl-exam%40appspot.gserviceaccount.com"
}